{
    "header": [
        {
            "id": "1",
            "text": "Дата"
        },
        {
            "id": "5",
            "text": "Год."
        },
        {
            "id": "100",
            "text": "Рвх"
        },
        {
            "id": "101",
            "text": "Рвих"
        },
        {
            "id": "102",
            "text": "ГПА"
        },
        {
            "id": "103",
            "text": "Рвх"
        },
        {
            "id": "104",
            "text": "Рвих"
        },
        {
            "id": "105",
            "text": "ГПА"
        },
        {
            "id": "106",
            "text": "Q ПСГ"
        },
        {
            "id": "107",
            "text": "с.роб"
        },
        {
            "id": "108",
            "text": "Стан"
        }
    ],
    "rows": [
        {
            "1": "Tue Dec 01 2020",
            "5": 7,
            "100": "50.5",
            "101": "60.6",
            "102": "2",
            "103": "27.3",
            "104": "37.5",
            "105": "3",
            "106": "1234",
            "107": "20",
            "108": "1"
        },
        {
            "1": "Tue Dec 01 2020",
            "5": 8,
            "100": "50.8",
            "101": "60.6",
            "102": "2",
            "103": "27.3",
            "104": "37.5",
            "105": "3",
            "106": "1234",
            "107": "20",
            "108": "1"
        },
        {
            "1": "Tue Dec 01 2020",
            "5": 9,
            "100": "50.9",
            "101": "60.6",
            "102": "2",
            "103": "27.3",
            "104": "37.5",
            "105": "3",
            "106": "1234",
            "107": "20",
            "108": "1"
        },
        {
            "1": "Tue Dec 01 2020",
            "5": 10,
            "100": "51.0",
            "104": "37.5",
            "105": "3",
            "106": "1234",
            "107": "20",
            "108": "1"
        }
    ],
    "link": {
        "page": 1,
        "per_page": 33,
        "prev": null,
        "next": 2,
        "last": 2,
        "total_count": 45
    }
}